eea.tp02.gams
…
Valores nicos y faltantes de columnas numricas

showUniqueAndMissingValues(gold.price.ds, col.numericas)

## Note: Using an external vector in selections is ambiguous.
## i Use `all_of(cols)` instead of `cols` to silence this message.
## i See <https://tidyselect.r-lib.org/reference/faq-external-vector.html>.
## This message is displayed once per session.

## # A tibble: 80 x 3
##    variables  uniques missing_values
##    <chr>        <int>          <dbl>
##  1 EU_Trend         2              0
##  2 OF_Trend         2              0
##  3 OS_Trend         2              0
##  4 PLD_Trend        2              0
##  5 PLT_Trend        2              0
##  6 SF_Trend         2              0
##  7 USB_Trend        2              0
##  8 USDI_Trend       2              0
##  9 RHO_PRICE      230              0
## 10 EG_open        809              0
## # ... with 70 more rows
…
